<svg width="78" height="77" viewBox="0 0 78 77" fill="none" xmlns="http://www.w3.org/2000/svg">
<path opacity="0.2" d="M29 57.3398V61.3398L38.5 65.3398L43 63.3398L48 61.3398L49 58.8398V56.3398L52.5 50.3398L55 45.8398L57 45.3398C57.5 44.3398 58.5 42.2398 58.5 41.8398C58.5 41.4398 59.1667 38.3398 59.5 36.8398L59 34.3398L56.5 32.8398V30.3398L54.5 28.8398L45.5 25.8398H35C31.6667 26.3398 24.9 27.3398 24.5 27.3398C24.1 27.3398 22.3333 28.3398 21.5 28.8398V32.3398L20 33.8398L18 35.3398L17.5 38.8398L18 43.3398L21.5 45.8398L24.5 51.3398L29 57.3398Z" fill="#5C241D"/>
<path d="M30 26.3398L21.5 28.3398V23.8398V20.3398L19.5 18.3398L17.5 16.8398L16.5 13.8398V10.3398L20 6.33984L25 5.83984L28.5 7.33984L30.5 4.33984L35.5 1.33984L42.5 1.83984L48.5 6.83984L50 6.33984L54 5.83984L58 7.33984L61 10.8398V13.3398L58.5 17.3398L56.5 19.8398L56 22.3398V29.8398L54 28.8398L46.5 26.8398L38.5 25.3398L30 26.3398Z" fill="white"/>
<path d="M45 43.8398L47 47.8398L38.75 48.0898L30.5 48.3398L30 46.8398L32 44.3398L34 43.3398H35.5L37 44.3398L38 45.8398L38.75 48.0898L40 44.8398L42 43.3398L45 43.8398Z" fill="white"/>
<path d="M4 71.3398L1 75.3398L4 75.8398L75 75.3398L76 74.3398L73 70.8398L68 68.8398L63 67.3398L56.5 65.3398L52 63.8398L49.5 60.8398L39 65.8398L28.5 61.3398L28 61.8398L25 64.3398L18.5 66.3398L9.5 68.3398L4 71.3398Z" fill="white"/>
<path d="M21.411 28.2578V33.2355C17.6777 33.2355 17.3043 37.9644 17.3043 39.0844C17.3043 40.2044 18.1754 45.6799 22.0332 45.6799C23.2962 50.9296 26.4966 55.5081 30.9931 58.4975M45.8018 58.4975C50.2983 55.5081 53.4988 50.9296 54.7618 45.6799C58.4951 45.6799 59.3662 40.3288 59.3662 39.0844C59.3662 37.8399 59.9884 33.36 56.2551 33.2355V30" stroke="#5C241D" stroke-width="2" stroke-miterlimit="10" stroke-linecap="round" stroke-linejoin="round"/>
<path d="M28.8775 57.0039V58.1239C28.8775 60.6128 29.6242 64.2216 15.9354 66.8349C2.24666 69.4482 1.5 75.546 1.5 75.546H76.166C76.166 75.546 76.166 70.0705 60.735 66.8349C48.7885 64.3461 48.7885 60.6128 48.7885 58.1239V56.1328" stroke="#5C241D" stroke-width="2" stroke-miterlimit="10" stroke-linecap="round" stroke-linejoin="round"/>
<path d="M28.8775 6.97803C23.8998 4.36473 16.4332 6.10693 16.4332 12.3291C16.4332 18.5513 21.4109 17.5557 21.4109 21.289V28.2578C27.0475 26.5006 32.9298 25.6603 38.833 25.769C44.9075 25.6584 50.9079 27.1157 56.255 30V20.7912C56.255 18.5513 61.2328 16.4357 61.2328 12.0802C61.2328 7.72469 56.1306 3.74251 48.7884 6.97803" stroke="#5C241D" stroke-width="2" stroke-miterlimit="10" stroke-linecap="round" stroke-linejoin="round"/>
<path d="M28.3797 61.3596L38.8329 65.5907M38.8329 65.5907L49.1617 60.8619M38.8329 65.5907V75.5462M38.8329 46.6753C38.8329 46.6753 37.9618 43.1909 34.7263 43.1909C31.4908 43.1909 30.1219 48.1687 30.1219 48.1687H47.544C47.544 48.1687 46.2995 43.1909 43.064 43.1909C39.8285 43.1909 38.8329 46.6753 38.8329 46.6753Z" stroke="#5C241D" stroke-width="2" stroke-miterlimit="10" stroke-linecap="round" stroke-linejoin="round"/>
<path d="M27.6331 10.9604C27.9392 8.21084 29.2522 5.67188 31.319 3.83282C33.3859 1.99375 36.0602 0.98472 38.8267 1.00017C41.5932 1.01563 44.2561 2.05448 46.3023 3.91652C48.3484 5.77857 49.633 8.33203 49.9084 11.0848" stroke="#5C241D" stroke-width="2" stroke-miterlimit="10" stroke-linecap="round" stroke-linejoin="round"/>
</svg>
