<svg width="58" height="58" viewBox="0 0 58 58" fill="none" xmlns="http://www.w3.org/2000/svg">
<path d="M29.9268 8.7124C19.3184 8.7124 10.7187 17.3121 10.7187 27.9205C10.7187 38.5288 19.3184 47.1286 29.9268 47.1286C40.5351 47.1286 49.1349 38.5288 49.1349 27.9205C49.1349 17.3121 40.5351 8.7124 29.9268 8.7124ZM29.9267 42.4951C21.8903 42.4951 15.3521 35.957 15.3521 27.9206C15.3521 19.8842 21.8903 13.3461 29.9267 13.3461C37.9631 13.3461 44.5012 19.8842 44.5012 27.9206C44.5012 35.957 37.9632 42.4951 29.9267 42.4951Z" fill="white"/>
<path d="M29.9266 17.2524C24.0444 17.2524 19.2588 22.038 19.2588 27.9203C19.2588 33.8025 24.0444 38.5881 29.9266 38.5881C35.8089 38.5881 40.5944 33.8025 40.5944 27.9203C40.5944 22.038 35.809 17.2524 29.9266 17.2524Z" fill="white"/>
<path d="M56.7896 29.5308V6.18949C56.7896 5.96429 56.6458 5.76412 56.4322 5.69219C56.2188 5.62037 55.9833 5.69298 55.847 5.87242C52.9347 9.71299 51.3586 14.4006 51.3586 19.2203V27.7593C51.3586 28.7386 52.1524 29.5326 53.1319 29.5326H53.8711C53.1424 37.0593 52.6608 47.5862 52.6608 48.8188C52.6608 50.7607 53.8561 52.3348 55.3304 52.3348C56.8048 52.3348 58 50.7606 58 48.8188C58 47.5861 57.5184 37.0575 56.7896 29.5308Z" fill="white"/>
<path d="M7.75036 24.9042C9.22778 24.0093 10.2153 22.3866 10.2153 20.5331L9.48345 8.56825C9.45547 8.11218 9.07745 7.75659 8.62048 7.75659C8.12623 7.75659 7.73246 8.17064 7.75705 8.66397L8.23294 18.2599C8.23294 18.7994 7.79556 19.2365 7.25634 19.2365C6.71701 19.2365 6.27975 18.7991 6.27975 18.2599L6.04197 8.66794C6.02939 8.16101 5.6149 7.75671 5.10774 7.75671C4.60058 7.75671 4.1862 8.16112 4.17351 8.66794L3.93573 18.2599C3.93573 18.7994 3.49835 19.2365 2.95913 19.2365C2.4198 19.2365 1.98254 18.7991 1.98254 18.2599L2.45843 8.66397C2.4829 8.17041 2.08891 7.75659 1.595 7.75659C1.13802 7.75659 0.760004 8.11218 0.732137 8.56825L0 20.5332C0 22.3868 0.987359 24.0093 2.46489 24.9043C3.42642 25.4867 3.96246 26.5756 3.83854 27.693C3.00445 35.2101 2.43804 47.4824 2.43804 48.8192C2.43804 50.7611 3.63327 52.3353 5.10763 52.3353C6.58198 52.3353 7.77721 50.761 7.77721 48.8192C7.77721 47.4824 7.21069 35.2101 6.37671 27.693C6.25267 26.5761 6.78929 25.4864 7.75036 24.9042Z" fill="white"/>
</svg>
